\relax 
\citation{klimchik2016design}
\citation{Pipe_2014}
\citation{khusainov2015toward}
\citation{buyval2017comparative}
\citation{magid2010static}
\citation{Panov2017}
\citation{ronzhin2016automatic}
\citation{hirzer2008marker}
\citation{fiala2004artag}
\providecommand \oddpage@label [2]{}
\newlabel{sec:introduction}{{1}{1}}
\citation{hirzer2008marker}
\citation{fiala2005comparing}
\citation{fiala2005artag}
\citation{fiala2004artag}
\citation{kato1999marker}
\citation{fiala2005artag}
\citation{fiala2005artag}
\citation{olson2011apriltag}
\providecommand*\caption@xref[2]{\@setref\relax\@undefined{#1}}
\newlabel{c_tags}{{1}{2}}
\citation{atcheson2010caltag}
\citation{bergamasco2011rune}
\newlabel{other_fid}{{2}{3}}
\citation{bergamasco2011rune}
\citation{reuter2012blurtags}
\citation{reuter2012blurtags}
\citation{reuter2012blurtags}
\citation{higashino2016arttag}
\citation{rice2006cantag}
\citation{sattar2007fourier}
\citation{fiala2005artag}
\citation{trachtenbert1996computational}
\citation{olson2011apriltag}
\newlabel{tab:lexicode}{{1}{4}}
\newlabel{april}{{3}{4}}
\newlabel{art}{{4}{5}}
\newlabel{schema_rotation}{{5}{5}}
\newlabel{z_normal}{{6}{5}}
\citation{garrido2014automatic}
\newlabel{y_lateral}{{7}{6}}
\newlabel{x_long}{{8}{6}}
\newlabel{random1}{{9}{6}}
\newlabel{random2}{{10}{6}}
\newlabel{tab:syst_1}{{2}{7}}
\newlabel{tab:syst_2}{{3}{7}}
\newlabel{tab:syst_3apr}{{4}{7}}
\newlabel{tab:syst_3art}{{5}{8}}
\newlabel{tab:syst_3cal96}{{6}{8}}
\newlabel{sec:conclusion}{{5}{8}}
\newlabel{tab:syst_3cal44}{{7}{8}}
\newlabel{tab:pivot_a}{{8}{8}}
\newlabel{tab:pivot_b}{{9}{8}}
\newlabel{tab:black_strip}{{10}{8}}
\citation{khusainov2015toward}
\bibstyle{apalike}
\bibdata{my_bibi}
\bibcite{atcheson2010caltag}{Atcheson et\nobreakspace  {}al., 2010}
\bibcite{bergamasco2011rune}{Bergamasco et\nobreakspace  {}al., 2011}
\bibcite{buyval2017comparative}{Buyval et\nobreakspace  {}al., 2017}
\bibcite{fiala2004artag}{Fiala, 2004}
\bibcite{fiala2005artag}{Fiala, 2005a}
\newlabel{tab:scissors}{{11}{9}}
\newlabel{tab:white_strip}{{12}{9}}
\bibcite{fiala2005comparing}{Fiala, 2005b}
\bibcite{garrido2014automatic}{Garrido-Jurado et\nobreakspace  {}al., 2014}
\bibcite{higashino2016arttag}{Higashino et\nobreakspace  {}al., 2016}
\bibcite{hirzer2008marker}{Hirzer, 2008}
\bibcite{kato1999marker}{Kato and Billinghurst, 1999}
\bibcite{khusainov2015toward}{Khusainov et\nobreakspace  {}al., 2015}
\bibcite{klimchik2016design}{Klimchik et\nobreakspace  {}al., 2016}
\bibcite{magid2010static}{Magid and Tsubouchi, 2010}
\bibcite{olson2011apriltag}{Olson, 2011}
\bibcite{Panov2017}{Panov and Yakovlev, 2017}
\bibcite{Pipe_2014}{Pipe et\nobreakspace  {}al., 2014}
\bibcite{reuter2012blurtags}{Reuter et\nobreakspace  {}al., 2012}
\bibcite{rice2006cantag}{Rice et\nobreakspace  {}al., 2006}
\bibcite{ronzhin2016automatic}{Ronzhin et\nobreakspace  {}al., 2016}
\bibcite{sattar2007fourier}{Sattar et\nobreakspace  {}al., 2007}
\bibcite{trachtenbert1996computational}{Trachtenbert, 1996}
