\relax 
\citation{klimchik2016design}
\citation{budkov2010multimodal}
\citation{khusainov2015toward}
\citation{ronzhin2016automatic}
\citation{buyvalcomparative}
\citation{magid2010static}
\citation{kim2015adaptive}
\citation{karpov2016multi}
\citation{Yakovlev2015}
\citation{yakovlev2014distributed}
\citation{kato1999marker}
\citation{khusainov2015toward}
\citation{sokolov20163d}
\citation{olson2011apriltag}
\providecommand \oddpage@label [2]{}
\@writefile{toc}{\contentsline {section}{\numberline {I}Introduction}{1}}
\@writefile{toc}{\contentsline {section}{\numberline {II}Fiducial Marker Systems}{1}}
\@writefile{toc}{\contentsline {subsection}{\numberline {\unhbox \voidb@x \hbox {II-A}}AprilTag}{1}}
\citation{olson2011apriltag}
\citation{fiala2004artag}
\citation{fiala2005artag}
\citation{atcheson2010caltag}
\citation{fiala2005comparing}
\@writefile{toc}{\contentsline {subsection}{\numberline {\unhbox \voidb@x \hbox {II-B}}ARTag}{2}}
\@writefile{lof}{\contentsline {figure}{\numberline {1}{\ignorespaces Examples of selected marker systems: ARTag, AprilTag and CALTag (from left to right).}}{2}}
\newlabel{Compare_tags}{{1}{2}}
\@writefile{toc}{\contentsline {subsection}{\numberline {\unhbox \voidb@x \hbox {II-C}}CALTag}{2}}
\@writefile{toc}{\contentsline {subsection}{\numberline {\unhbox \voidb@x \hbox {II-D}}Other Fiducial Marker Systems}{2}}
\citation{naimark2002circular}
\citation{bergamasco2011rune}
\citation{fiala2005comparing}
\citation{sattar2007fourier}
\citation{reuter2012blurtags}
\citation{rice2006cantag}
\@writefile{lof}{\contentsline {figure}{\numberline {2}{\ignorespaces Example of existing marker systems. Top set of images, from left to right: ARToolKit, Circular Data Matrix, RuneTag, ARToolKit Plus. Bottom set of images, from left to right: Fourier tag, Blur tag, MaxiCode, Cantag.}}{3}}
\newlabel{Other_tags}{{2}{3}}
\@writefile{toc}{\contentsline {section}{\numberline {III}Experiment Design}{3}}
\citation{garrido2014automatic}
\citation{sagitov2017}
\citation{sagitov2017}
\@writefile{lof}{\contentsline {figure}{\numberline {3}{\ignorespaces Preparing AR-601M hardware and the equipment for experimental work.}}{4}}
\newlabel{Exp_design}{{3}{4}}
\@writefile{lof}{\contentsline {figure}{\numberline {4}{\ignorespaces Basler acA640-90gc camera used in experiments. Courtesy of Basler AG.}}{4}}
\newlabel{basler_camera}{{4}{4}}
\@writefile{toc}{\contentsline {subsection}{\numberline {\unhbox \voidb@x \hbox {III-A}}Type 1 - Systematic occlusion}{4}}
\@writefile{toc}{\contentsline {subsection}{\numberline {\unhbox \voidb@x \hbox {III-B}}Type 2 - Arbitrary overlap with an object }{4}}
\@writefile{toc}{\contentsline {section}{\numberline {IV}Experimental Results}{4}}
\citation{sagitov2017}
\citation{atcheson2010caltag}
\@writefile{lof}{\contentsline {figure}{\numberline {5}{\ignorespaces CALTag 9x6 (top set of images) and AprilTag (bottom set of images) occlusion for 0,10, 20, 50, 70\% (from left to right).}}{5}}
\newlabel{systematic}{{5}{5}}
\@writefile{lof}{\contentsline {figure}{\numberline {6}{\ignorespaces Arbitrary overlap of the AprilTag ID6 with the scissors object (top set of images) and ARTag ID2 with the strip object (bottom set of images).}}{5}}
\newlabel{random}{{6}{5}}
\@writefile{lot}{\contentsline {table}{\numberline {I}{\ignorespaces Results of type 1 occlusion experiments for Genius FaceCam 1000X camera\nobreakspace  {}\cite  {sagitov2017} }}{5}}
\newlabel{tab_systematic_previous}{{I}{5}}
\@writefile{lot}{\contentsline {table}{\numberline {II}{\ignorespaces Results of type 1 occlusion experiments with Basler acA640-90gc camera }}{5}}
\newlabel{tab_systematic}{{II}{5}}
\@writefile{lot}{\contentsline {table}{\numberline {III}{\ignorespaces Results of type 2 occlusion experiments with a strip object with Basler acA640-90gc camera }}{5}}
\newlabel{tab_strip_a}{{III}{5}}
\@writefile{lot}{\contentsline {table}{\numberline {IV}{\ignorespaces Results of type 2 occlusion experiments with a scissors with Basler acA640-90gc camera Object}}{5}}
\newlabel{tab_scissors}{{IV}{5}}
\bibstyle{ieeetr}
\bibdata{my_bibi}
\bibcite{klimchik2016design}{1}
\bibcite{budkov2010multimodal}{2}
\bibcite{khusainov2015toward}{3}
\bibcite{ronzhin2016automatic}{4}
\bibcite{buyvalcomparative}{5}
\bibcite{magid2010static}{6}
\bibcite{kim2015adaptive}{7}
\bibcite{karpov2016multi}{8}
\bibcite{Yakovlev2015}{9}
\bibcite{yakovlev2014distributed}{10}
\bibcite{kato1999marker}{11}
\bibcite{sokolov20163d}{12}
\bibcite{olson2011apriltag}{13}
\bibcite{fiala2004artag}{14}
\bibcite{fiala2005artag}{15}
\bibcite{atcheson2010caltag}{16}
\bibcite{fiala2005comparing}{17}
\bibcite{naimark2002circular}{18}
\bibcite{bergamasco2011rune}{19}
\bibcite{sattar2007fourier}{20}
\bibcite{reuter2012blurtags}{21}
\bibcite{rice2006cantag}{22}
\bibcite{garrido2014automatic}{23}
\bibcite{sagitov2017}{24}
\@writefile{toc}{\contentsline {section}{\numberline {V}Conclusion and Future Work}{6}}
\@writefile{toc}{\contentsline {section}{References}{6}}
